 /home/pi/Desktop/BTP/Day2/Orange/im1_064845.jpg 27.72 20191102064845
/home/pi/Desktop/BTP/Day2/Orange/im2_064904.jpg 27.26 20191102064904
/home/pi/Desktop/BTP/Day2/Orange/im3_064930.jpg 24.65 20191102064930
/home/pi/Desktop/BTP/Day2/Orange/im4_064951.jpg 25.08 20191102064951
/home/pi/Desktop/BTP/Day2/Orange/im5_065009.jpg 24.36 20191102065009
/home/pi/Desktop/BTP/Day2/Orange/im6_065101.jpg 32.25 20191102065101
/home/pi/Desktop/BTP/Day2/Orange/im7_065119.jpg 23.04 20191102065119
/home/pi/Desktop/BTP/Day2/Orange/im8_065137.jpg 30.72 20191102065137
/home/pi/Desktop/BTP/Day2/Orange/im9_065156.jpg 27.55 20191102065156
/home/pi/Desktop/BTP/Day2/Orange/im10_065213.jpg 30.69 20191102065213
/home/pi/Desktop/BTP/Day2/Orange/im11_065233.jpg 29.18 20191102065233
/home/pi/Desktop/BTP/Day2/Orange/im12_065256.jpg 22.32 20191102065256
/home/pi/Desktop/BTP/Day2/Orange/im13_065320.jpg 23.18 20191102065320
/home/pi/Desktop/BTP/Day2/Orange/im14_065337.jpg 25.94 20191102065337
/home/pi/Desktop/BTP/Day2/Orange/im15_065353.jpg 25.98 20191102065353
/home/pi/Desktop/BTP/Day2/Orange/im16_065411.jpg 25.46 20191102065411
/home/pi/Desktop/BTP/Day2/Orange/im17_065428.jpg 26.17 20191102065428
/home/pi/Desktop/BTP/Day2/Orange/im18_065445.jpg 31.92 20191102065445
/home/pi/Desktop/BTP/Day2/Orange/im19_065500.jpg 28.43 20191102065500
/home/pi/Desktop/BTP/Day2/Orange/im20_065517.jpg 25.98 20191102065517
/home/pi/Desktop/BTP/Day2/Orange/im21_065536.jpg 20.8 20191102065536
/home/pi/Desktop/BTP/Day2/Orange/im22_065552.jpg 25.03 20191102065552
/home/pi/Desktop/BTP/Day2/Orange/im23_065613.jpg 33.75 20191102065613
/home/pi/Desktop/BTP/Day2/Orange/im24_065633.jpg 28.39 20191102065633
/home/pi/Desktop/BTP/Day2/Orange/im25_065657.jpg 26.51 20191102065657
/home/pi/Desktop/BTP/Day2/Orange/im26_065712.jpg 24.49 20191102065712
/home/pi/Desktop/BTP/Day2/Orange/im27_065726.jpg 27.06 20191102065726
/home/pi/Desktop/BTP/Day2/Orange/im28_065743.jpg 25.08 20191102065743
/home/pi/Desktop/BTP/Day2/Orange/im29_065800.jpg 26.27 20191102065800
/home/pi/Desktop/BTP/Day2/Orange/im30_065816.jpg 26.77 20191102065816
/home/pi/Desktop/BTP/Day2/Orange/im31_065842.jpg 26.26 20191102065842
/home/pi/Desktop/BTP/Day2/Orange/im32_065920.jpg 27.39 20191102065920
/home/pi/Desktop/BTP/Day2/Orange/im33_065937.jpg 28.53 20191102065937
/home/pi/Desktop/BTP/Day2/Orange/im34_065953.jpg 23.33 20191102065953
/home/pi/Desktop/BTP/Day2/Orange/im35_070013.jpg 24.36 20191102070013
/home/pi/Desktop/BTP/Day2/Orange/im36_070034.jpg 30.55 20191102070034
/home/pi/Desktop/BTP/Day2/Orange/im37_070049.jpg 26.3 20191102070049
/home/pi/Desktop/BTP/Day2/Orange/im38_070106.jpg 32.15 20191102070106
/home/pi/Desktop/BTP/Day2/Orange/im39_070124.jpg 28 20191102070124
/home/pi/Desktop/BTP/Day2/Orange/im40_070200.jpg 26.16 20191102070200
/home/pi/Desktop/BTP/Day2/Orange/im41_070218.jpg 28.73 20191102070218
/home/pi/Desktop/BTP/Day2/Orange/im42_070234.jpg 26.08 20191102070234
/home/pi/Desktop/BTP/Day2/Orange/im43_070251.jpg 29.71 20191102070251
/home/pi/Desktop/BTP/Day2/Orange/im44_070311.jpg 23.78 20191102070311
/home/pi/Desktop/BTP/Day2/Orange/im45_070332.jpg 26.52 20191102070332
/home/pi/Desktop/BTP/Day2/Orange/im46_070350.jpg 21.46 20191102070350
/home/pi/Desktop/BTP/Day2/Orange/im47_070415.jpg 23.24 20191102070415
/home/pi/Desktop/BTP/Day2/Orange/im48_070431.jpg 23.61 20191102070431
/home/pi/Desktop/BTP/Day2/Orange/im49_070448.jpg 27.96 20191102070448
/home/pi/Desktop/BTP/Day2/Orange/im50_070505.jpg 31.88 20191102070505
/home/pi/Desktop/BTP/Day2/Orange/im51_070619.jpg 26.24 20191102070619
/home/pi/Desktop/BTP/Day2/Orange/im52_070638.jpg 27.29 20191102070638
/home/pi/Desktop/BTP/Day2/Orange/im53_070653.jpg 28.94 20191102070653
/home/pi/Desktop/BTP/Day2/Orange/im53_070702.jpg 28.94 20191102070702
/home/pi/Desktop/BTP/Day2/Orange/im54_070717.jpg 30.26 20191102070717
/home/pi/Desktop/BTP/Day2/Orange/im55_070734.jpg 27.46 20191102070734
/home/pi/Desktop/BTP/Day2/Orange/im56_070749.jpg 25.48 20191102070749
/home/pi/Desktop/BTP/Day2/Orange/im57_070805.jpg 25.96 20191102070805
/home/pi/Desktop/BTP/Day2/Orange/im58_070819.jpg 27.03 20191102070819
/home/pi/Desktop/BTP/Day2/Orange/im59_070840.jpg 25.93 20191102070840
/home/pi/Desktop/BTP/Day2/Orange/im60_070858.jpg 24.82 20191102070858
/home/pi/Desktop/BTP/Day2/Orange/im61_070944.jpg 28.88 20191102070944
/home/pi/Desktop/BTP/Day2/Orange/im62_071000.jpg 23.74 20191102071000
/home/pi/Desktop/BTP/Day2/Orange/im63_071018.jpg 23.38 20191102071018
/home/pi/Desktop/BTP/Day2/Orange/im64_071034.jpg 24.94 20191102071034
/home/pi/Desktop/BTP/Day2/Orange/im65_071050.jpg 24.16 20191102071050
/home/pi/Desktop/BTP/Day2/Orange/im66_071108.jpg 21.47 20191102071108
/home/pi/Desktop/BTP/Day2/Orange/im67_071133.jpg 23.13 20191102071133
/home/pi/Desktop/BTP/Day2/Orange/im68_071149.jpg 30.18 20191102071149
/home/pi/Desktop/BTP/Day2/Orange/im69_071206.jpg 33.28 20191102071206
/home/pi/Desktop/BTP/Day2/Orange/im70_071223.jpg 30.01 20191102071223
/home/pi/Desktop/BTP/Day2/Orange/im71_071239.jpg 22.48 20191102071239
/home/pi/Desktop/BTP/Day2/Orange/im72_071257.jpg 28.39 20191102071257
/home/pi/Desktop/BTP/Day2/Orange/im73_071314.jpg 25.38 20191102071314
/home/pi/Desktop/BTP/Day2/Orange/im74_071329.jpg 28.22 20191102071329
/home/pi/Desktop/BTP/Day2/Orange/im75_071346.jpg 24.14 20191102071346
/home/pi/Desktop/BTP/Day2/Orange/im76_071403.jpg 32.25 20191102071403
/home/pi/Desktop/BTP/Day2/Orange/im77_071418.jpg 24.47 20191102071418
/home/pi/Desktop/BTP/Day2/Orange/im78_071435.jpg 20.93 20191102071435
/home/pi/Desktop/BTP/Day2/Orange/im79_071454.jpg 30.6 20191102071454
/home/pi/Desktop/BTP/Day2/Orange/im80_071509.jpg 24.54 20191102071509
/home/pi/Desktop/BTP/Day2/Orange/im81_071524.jpg 22.72 20191102071524
/home/pi/Desktop/BTP/Day2/Orange/im82_071541.jpg 21.83 20191102071541
/home/pi/Desktop/BTP/Day2/Orange/im83_071602.jpg 29.79 20191102071602
/home/pi/Desktop/BTP/Day2/Orange/im84_071620.jpg 21.71 20191102071620
/home/pi/Desktop/BTP/Day2/Orange/im85_071635.jpg 23.69 20191102071635
/home/pi/Desktop/BTP/Day2/Orange/im86_071701.jpg 29.37 20191102071701
/home/pi/Desktop/BTP/Day2/Orange/im87_071718.jpg 22.83 20191102071718
/home/pi/Desktop/BTP/Day2/Orange/im88_071737.jpg 25.92 20191102071737
/home/pi/Desktop/BTP/Day2/Orange/im89_071753.jpg 25.96 20191102071753
/home/pi/Desktop/BTP/Day2/Orange/im90_071808.jpg 30.78 20191102071808
/home/pi/Desktop/BTP/Day2/Orange/im91_071906.jpg 29.03 20191102071906
/home/pi/Desktop/BTP/Day2/Orange/im92_071927.jpg 19.47 20191102071927
/home/pi/Desktop/BTP/Day2/Orange/im93_071944.jpg 19.83 20191102071944
/home/pi/Desktop/BTP/Day2/Orange/im94_072009.jpg 18.82 20191102072009
/home/pi/Desktop/BTP/Day2/Orange/im95_072026.jpg 29.24 20191102072026
/home/pi/Desktop/BTP/Day2/Orange/im96_072046.jpg 22.29 20191102072046
/home/pi/Desktop/BTP/Day2/Orange/im97_072104.jpg 28.76 20191102072104
/home/pi/Desktop/BTP/Day2/Orange/im98_072146.jpg 26.18 20191102072146
/home/pi/Desktop/BTP/Day2/Orange/im99_072221.jpg 29.18 20191102072221
/home/pi/Desktop/BTP/Day2/Orange/im99_072236.jpg 29.18 20191102072236
/home/pi/Desktop/BTP/Day2/Orange/im100_072255.jpg 23.42 20191102072255
/home/pi/Desktop/BTP/Day2/Orange/im101_072329.jpg 26.87 20191102072329
/home/pi/Desktop/BTP/Day2/Orange/im102_072353.jpg 28.5 20191102072353
/home/pi/Desktop/BTP/Day2/Orange/im103_072407.jpg 26.2 20191102072407
/home/pi/Desktop/BTP/Day2/Orange/im104_072425.jpg 23.38 20191102072425
/home/pi/Desktop/BTP/Day2/Orange/im105_072441.jpg 19.49 20191102072441
/home/pi/Desktop/BTP/Day2/Orange/im106_072456.jpg 27.36 20191102072456
/home/pi/Desktop/BTP/Day2/Orange/im107_072516.jpg 20.71 20191102072516
/home/pi/Desktop/BTP/Day2/Orange/im108_072534.jpg 27.63 20191102072534
/home/pi/Desktop/BTP/Day2/Orange/im109_072550.jpg 26.63 20191102072550
/home/pi/Desktop/BTP/Day2/Orange/im110_072604.jpg 23.24 20191102072604
/home/pi/Desktop/BTP/Day2/Orange/im111_072620.jpg 26.09 20191102072620
/home/pi/Desktop/BTP/Day2/Orange/im112_072636.jpg 25.07 20191102072636
/home/pi/Desktop/BTP/Day2/Orange/im113_072656.jpg 27.64 20191102072656
/home/pi/Desktop/BTP/Day2/Orange/im114_072715.jpg 28.14 20191102072715
/home/pi/Desktop/BTP/Day2/Orange/im115_072731.jpg 24.44 20191102072731
/home/pi/Desktop/BTP/Day2/Orange/im116_072746.jpg 25.19 20191102072746
/home/pi/Desktop/BTP/Day2/Orange/im117_072803.jpg 25.67 20191102072803
/home/pi/Desktop/BTP/Day2/Orange/im118_072820.jpg 29.61 20191102072820
/home/pi/Desktop/BTP/Day2/Orange/im119_072840.jpg 28.64 20191102072840
/home/pi/Desktop/BTP/Day2/Orange/im120_072859.jpg 29.95 20191102072859
/home/pi/Desktop/BTP/Day2/Orange/im121_072949.jpg 30.41 20191102072949
/home/pi/Desktop/BTP/Day2/Orange/im122_073009.jpg 25.33 20191102073009
/home/pi/Desktop/BTP/Day2/Orange/im123_073022.jpg 17.68 20191102073022
/home/pi/Desktop/BTP/Day2/Orange/im124_073037.jpg 25.62 20191102073037
/home/pi/Desktop/BTP/Day2/Orange/im125_073052.jpg 30.03 20191102073052
/home/pi/Desktop/BTP/Day2/Orange/im126_073112.jpg 25.86 20191102073112
/home/pi/Desktop/BTP/Day2/Orange/im127_073128.jpg 22.6 20191102073128
/home/pi/Desktop/BTP/Day2/Orange/im128_073145.jpg 24.79 20191102073145
/home/pi/Desktop/BTP/Day2/Orange/im129_073205.jpg 27.84 20191102073205
/home/pi/Desktop/BTP/Day2/Orange/im130_073223.jpg 25.85 20191102073223
/home/pi/Desktop/BTP/Day2/Orange/im131_073241.jpg 25.08 20191102073241
/home/pi/Desktop/BTP/Day2/Orange/im132_073258.jpg 21.08 20191102073258
/home/pi/Desktop/BTP/Day2/Orange/im133_073314.jpg 28.15 20191102073314
/home/pi/Desktop/BTP/Day2/Orange/im134_073337.jpg 20.8 20191102073337
/home/pi/Desktop/BTP/Day2/Orange/im135_073402.jpg 28.7 20191102073402
/home/pi/Desktop/BTP/Day2/Orange/im136_073424.jpg 26.84 20191102073424
/home/pi/Desktop/BTP/Day2/Orange/im137_073440.jpg 25.83 20191102073440
/home/pi/Desktop/BTP/Day2/Orange/im138_073456.jpg 20.76 20191102073456
/home/pi/Desktop/BTP/Day2/Orange/im139_073510.jpg 28.5 20191102073510
/home/pi/Desktop/BTP/Day2/Orange/im140_073529.jpg 31.08 20191102073529
/home/pi/Desktop/BTP/Day2/Orange/im141_073546.jpg 28.61 20191102073546
/home/pi/Desktop/BTP/Day2/Orange/im142_073604.jpg 27.64 20191102073604
/home/pi/Desktop/BTP/Day2/Orange/im143_073621.jpg 31.35 20191102073621
/home/pi/Desktop/BTP/Day2/Orange/im143_073627.jpg 31.35 20191102073627
/home/pi/Desktop/BTP/Day2/Orange/im144_073646.jpg 25.59 20191102073646
/home/pi/Desktop/BTP/Day2/Orange/im145_073701.jpg 25.91 20191102073701
/home/pi/Desktop/BTP/Day2/Orange/im146_073717.jpg 25.38 20191102073717
/home/pi/Desktop/BTP/Day2/Orange/im147_073733.jpg 17.13 20191102073733
/home/pi/Desktop/BTP/Day2/Orange/im148_073750.jpg 28.38 20191102073750
/home/pi/Desktop/BTP/Day2/Orange/im149_073805.jpg 27.5 20191102073805
/home/pi/Desktop/BTP/Day2/Orange/im150_073822.jpg 34.01 20191102073822
/home/pi/Desktop/BTP/Day2/Yellow/im1_074411.jpg 21.52 20191102074411
/home/pi/Desktop/BTP/Day2/Yellow/im2_074427.jpg 21.35 20191102074427
/home/pi/Desktop/BTP/Day2/Yellow/im3_074443.jpg 17.1 20191102074443
/home/pi/Desktop/BTP/Day2/Yellow/im4_074501.jpg 26.28 20191102074501
/home/pi/Desktop/BTP/Day2/Yellow/im5_074517.jpg 24.96 20191102074517
/home/pi/Desktop/BTP/Day2/Yellow/im6_074532.jpg 25.53 20191102074532
/home/pi/Desktop/BTP/Day2/Yellow/im7_074554.jpg 24.00 20191102074554
/home/pi/Desktop/BTP/Day2/Yellow/im8_074612.jpg 25.2 20191102074612
/home/pi/Desktop/BTP/Day2/Yellow/im9_074630.jpg 23.64 20191102074630
/home/pi/Desktop/BTP/Day2/Yellow/im10_074645.jpg 21.81 20191102074645
/home/pi/Desktop/BTP/Day2/Yellow/im11_074705.jpg 23.82 20191102074705
/home/pi/Desktop/BTP/Day2/Yellow/im12_074722.jpg 23.27 20191102074722
/home/pi/Desktop/BTP/Day2/Yellow/im13_074750.jpg 22.48 20191102074750
/home/pi/Desktop/BTP/Day2/Yellow/im14_074813.jpg 21.12 20191102074813
/home/pi/Desktop/BTP/Day2/Yellow/im15_074829.jpg 24.78 20191102074829
/home/pi/Desktop/BTP/Day2/Yellow/im16_074848.jpg 25.21 20191102074848
/home/pi/Desktop/BTP/Day2/Yellow/im17_074904.jpg 24.37 20191102074904
/home/pi/Desktop/BTP/Day2/Yellow/im18_074929.jpg 15.27 20191102074929
/home/pi/Desktop/BTP/Day2/Yellow/im19_074943.jpg 23.2 20191102074943
/home/pi/Desktop/BTP/Day2/Yellow/im20_075001.jpg 24.95 20191102075001
/home/pi/Desktop/BTP/Day2/Yellow/im21_075022.jpg 23.2 20191102075022
/home/pi/Desktop/BTP/Day2/Yellow/im22_075102.jpg 23.2 20191102075102
/home/pi/Desktop/BTP/Day2/Yellow/im23_075124.jpg 24.27 20191102075124
/home/pi/Desktop/BTP/Day2/Yellow/im24_075141.jpg 22.62 20191102075141
/home/pi/Desktop/BTP/Day2/Yellow/im25_075203.jpg 24.03 20191102075203
/home/pi/Desktop/BTP/Day2/Yellow/im26_075219.jpg 23.4 20191102075219
/home/pi/Desktop/BTP/Day2/Yellow/im27_075237.jpg 21.78 20191102075237
/home/pi/Desktop/BTP/Day2/Yellow/im28_075254.jpg 29.10 20191102075254
/home/pi/Desktop/BTP/Day2/Yellow/im29_075313.jpg 27.68 20191102075313
/home/pi/Desktop/BTP/Day2/Yellow/im30_075336.jpg 24.81 20191102075336
/home/pi/Desktop/BTP/Day2/Yellow/im31_075451.jpg 25.22 20191102075451
/home/pi/Desktop/BTP/Day2/Yellow/im32_075508.jpg 25.75 20191102075508
/home/pi/Desktop/BTP/Day2/Yellow/im33_075525.jpg 20.67 20191102075525
/home/pi/Desktop/BTP/Day2/Yellow/im34_075542.jpg 27.86 20191102075542
/home/pi/Desktop/BTP/Day2/Yellow/im35_075558.jpg 25.7 20191102075558
/home/pi/Desktop/BTP/Day2/Yellow/im36_075617.jpg 25.06 20191102075617
/home/pi/Desktop/BTP/Day2/Yellow/im37_075631.jpg 26.95 20191102075631
/home/pi/Desktop/BTP/Day2/Yellow/im38_075649.jpg 24.94 20191102075649
/home/pi/Desktop/BTP/Day2/Yellow/im39_075704.jpg 24.71 20191102075704
/home/pi/Desktop/BTP/Day2/Yellow/im40_075722.jpg 23.11 20191102075722
/home/pi/Desktop/BTP/Day2/Yellow/im41_075738.jpg 23.91 20191102075738
/home/pi/Desktop/BTP/Day2/Yellow/im42_075758.jpg 22.99 20191102075758
/home/pi/Desktop/BTP/Day2/Yellow/im43_075819.jpg 24.63 20191102075819
/home/pi/Desktop/BTP/Day2/Yellow/im44_075837.jpg 24.10 20191102075837
/home/pi/Desktop/BTP/Day2/Yellow/im45_075854.jpg 21.7 20191102075854
/home/pi/Desktop/BTP/Day2/Yellow/im46_075914.jpg 22.41 20191102075914
/home/pi/Desktop/BTP/Day2/Yellow/im47_080113.jpg 21.03 20191102080113
/home/pi/Desktop/BTP/Day2/Yellow/im48_080136.jpg 22.00 20191102080136
/home/pi/Desktop/BTP/Day2/Yellow/im49_080153.jpg 22.47 20191102080153
/home/pi/Desktop/BTP/Day2/Yellow/im49_080200.jpg 22.47 20191102080200
/home/pi/Desktop/BTP/Day2/Yellow/im50_080218.jpg 26.73 20191102080218
/home/pi/Desktop/BTP/Day2/Yellow/im51_080234.jpg 26.68 20191102080234
/home/pi/Desktop/BTP/Day2/Yellow/im52_080249.jpg 18.36 20191102080249
/home/pi/Desktop/BTP/Day2/Yellow/im53_080306.jpg 19.45 20191102080306
/home/pi/Desktop/BTP/Day2/Yellow/im54_080321.jpg 25.04 20191102080321
/home/pi/Desktop/BTP/Day2/Yellow/im55_080336.jpg 24.14 20191102080336
/home/pi/Desktop/BTP/Day2/Yellow/im56_080352.jpg 20.97 20191102080352
/home/pi/Desktop/BTP/Day2/Yellow/im57_080409.jpg 23.04 20191102080409
/home/pi/Desktop/BTP/Day2/Yellow/im58_080431.jpg 23.44 20191102080431
/home/pi/Desktop/BTP/Day2/Yellow/im59_080448.jpg 26.26 20191102080448
/home/pi/Desktop/BTP/Day2/Yellow/im60_080504.jpg 17.51 20191102080504
/home/pi/Desktop/BTP/Day2/Green/im1_080708.jpg 37.75 20191102080708
/home/pi/Desktop/BTP/Day2/Green/im2_080729.jpg 36.97 20191102080729
/home/pi/Desktop/BTP/Day2/Green/im3_080746.jpg 35.91 20191102080746
/home/pi/Desktop/BTP/Day2/Green/im4_080803.jpg 39.37 20191102080803
/home/pi/Desktop/BTP/Day2/Green/im5_080817.jpg 35.1 20191102080817
/home/pi/Desktop/BTP/Day2/Green/im6_080841.jpg 39.66 20191102080841
/home/pi/Desktop/BTP/Day2/Green/im7_080858.jpg 39.93 20191102080858
/home/pi/Desktop/BTP/Day2/Green/im8_080914.jpg 39.04 20191102080914
/home/pi/Desktop/BTP/Day2/Green/im9_080929.jpg 37.89 20191102080929
/home/pi/Desktop/BTP/Day2/Green/im10_080953.jpg 43.83 20191102080953
/home/pi/Desktop/BTP/Day2/Green/im11_081046.jpg 37.22 20191102081046
/home/pi/Desktop/BTP/Day2/Green/im12_081104.jpg 40.93 20191102081104
/home/pi/Desktop/BTP/Day2/Green/im13_081128.jpg 41.81 20191102081128
/home/pi/Desktop/BTP/Day2/Green/im14_081153.jpg 27.86 20191102081153
/home/pi/Desktop/BTP/Day2/Green/im15_081215.jpg 33.44 20191102081215
/home/pi/Desktop/BTP/Day2/Green/im16_081239.jpg 40.86 20191102081239
/home/pi/Desktop/BTP/Day2/Green/im17_081256.jpg 48.91 20191102081256
/home/pi/Desktop/BTP/Day2/Green/im18_081311.jpg 36.2 20191102081311
/home/pi/Desktop/BTP/Day2/Green/im19_081327.jpg 37.75 20191102081327
/home/pi/Desktop/BTP/Day2/Green/im20_081343.jpg 35.69 20191102081343
/home/pi/Desktop/BTP/Day2/Green/im21_081358.jpg 39.24 20191102081358
/home/pi/Desktop/BTP/Day2/Green/im22_081417.jpg 37.07 20191102081417
/home/pi/Desktop/BTP/Day2/Green/im23_081436.jpg 38.93 20191102081436
/home/pi/Desktop/BTP/Day2/Green/im24_081454.jpg 37.63 20191102081454
/home/pi/Desktop/BTP/Day2/Green/im25_081510.jpg 34.3 20191102081510
/home/pi/Desktop/BTP/Day2/Green/im26_081526.jpg 41.5 20191102081526
/home/pi/Desktop/BTP/Day2/Green/im27_081541.jpg 39.23 20191102081541
/home/pi/Desktop/BTP/Day2/Green/im28_081556.jpg 36.27 20191102081556
/home/pi/Desktop/BTP/Day2/Green/im29_081610.jpg 38.8 20191102081610
/home/pi/Desktop/BTP/Day2/Green/im30_081627.jpg 33.15 20191102081627
/home/pi/Desktop/BTP/Day2/Green/im31_081656.jpg 36.15 20191102081656
/home/pi/Desktop/BTP/Day2/Green/im32_081713.jpg 33.59 20191102081713
/home/pi/Desktop/BTP/Day2/Green/im33_081729.jpg 34.42 20191102081729
/home/pi/Desktop/BTP/Day2/Green/im34_081744.jpg 24.56 20191102081744
/home/pi/Desktop/BTP/Day2/Green/im35_081759.jpg 29.48 20191102081759
/home/pi/Desktop/BTP/Day2/Green/im36_081816.jpg 41.73 20191102081816
/home/pi/Desktop/BTP/Day2/Green/im37_081833.jpg 36.88 20191102081833
/home/pi/Desktop/BTP/Day2/Green/im38_081853.jpg 40.05 20191102081853
/home/pi/Desktop/BTP/Day2/Green/im39_081908.jpg 36.22 20191102081908
/home/pi/Desktop/BTP/Day2/Green/im40_081941.jpg 35.65 20191102081941
/home/pi/Desktop/BTP/Day2/Green/im41_082000.jpg 39.54 20191102082000
/home/pi/Desktop/BTP/Day2/Green/im42_082015.jpg 36.06 20191102082015
/home/pi/Desktop/BTP/Day2/Green/im43_082030.jpg 40.55 20191102082030
/home/pi/Desktop/BTP/Day2/Green/im44_082044.jpg 27.47 20191102082044
/home/pi/Desktop/BTP/Day2/Green/im45_082059.jpg 33.96 20191102082059
/home/pi/Desktop/BTP/Day2/Green/im46_082125.jpg 36.24 20191102082125
/home/pi/Desktop/BTP/Day2/Green/im47_082140.jpg 38.57 20191102082140
/home/pi/Desktop/BTP/Day2/Green/im48_082202.jpg 23.53 20191102082202
/home/pi/Desktop/BTP/Day2/Green/im49_082218.jpg 42.29 20191102082218
/home/pi/Desktop/BTP/Day2/Green/im50_082235.jpg 29.87 20191102082235
/home/pi/Desktop/BTP/Day2/Green/im51_082251.jpg 23.29 20191102082251
/home/pi/Desktop/BTP/Day2/Green/im52_082310.jpg 35.81 20191102082310
/home/pi/Desktop/BTP/Day2/Green/im53_082327.jpg 34.95 20191102082327
/home/pi/Desktop/BTP/Day2/Green/im54_082346.jpg 37.31 20191102082346
/home/pi/Desktop/BTP/Day2/Green/im55_082405.jpg 23.77 20191102082405
/home/pi/Desktop/BTP/Day2/Green/im56_082421.jpg 29.68 20191102082421
/home/pi/Desktop/BTP/Day2/Green/im57_082439.jpg 40.52 20191102082439
/home/pi/Desktop/BTP/Day2/Green/im58_082454.jpg 35.91 20191102082454
/home/pi/Desktop/BTP/Day2/Green/im59_082509.jpg 32.91 20191102082509
/home/pi/Desktop/BTP/Day2/Green/im60_082527.jpg 23.42 20191102082527
/home/pi/Desktop/BTP/Day2/Green/im61_082606.jpg 34.32 20191102082606
/home/pi/Desktop/BTP/Day2/Green/im62_082624.jpg 32.55 20191102082624
/home/pi/Desktop/BTP/Day2/Green/im63_082641.jpg 25.62 20191102082641
/home/pi/Desktop/BTP/Day2/Green/im64_082655.jpg 23.69 20191102082655
/home/pi/Desktop/BTP/Day2/Green/im65_082713.jpg 36.21 20191102082713
/home/pi/Desktop/BTP/Day2/Green/im66_082731.jpg 31.88 20191102082731
/home/pi/Desktop/BTP/Day2/Green/im67_082751.jpg 26.53 20191102082751
/home/pi/Desktop/BTP/Day2/Green/im68_082809.jpg 31.91 20191102082809
/home/pi/Desktop/BTP/Day2/Green/im69_082828.jpg 30.66 20191102082828
/home/pi/Desktop/BTP/Day2/Green/im70_082845.jpg 32.08 20191102082845
/home/pi/Desktop/BTP/Day2/Green/im71_082858.jpg 40.67 20191102082858
/home/pi/Desktop/BTP/Day2/Green/im72_082913.jpg 21.19 20191102082913
/home/pi/Desktop/BTP/Day2/Green/im73_082928.jpg 27.08 20191102082928
/home/pi/Desktop/BTP/Day2/Green/im74_082942.jpg 26.02 20191102082942
/home/pi/Desktop/BTP/Day2/Green/im75_083002.jpg 38.31 20191102083002
/home/pi/Desktop/BTP/Day2/Green/im76_083018.jpg 37.30 20191102083018
/home/pi/Desktop/BTP/Day2/Green/im77_083038.jpg 41.90 20191102083038
/home/pi/Desktop/BTP/Day2/Green/im78_083053.jpg 29.44 20191102083053
/home/pi/Desktop/BTP/Day2/Green/im79_083111.jpg 25.24 20191102083111
/home/pi/Desktop/BTP/Day2/Green/im80_083130.jpg 24.54 20191102083130
/home/pi/Desktop/BTP/Day2/Green/im81_083146.jpg 27.53 20191102083146
/home/pi/Desktop/BTP/Day2/Green/im82_083210.jpg 25.75 20191102083210
/home/pi/Desktop/BTP/Day2/Green/im83_083320.jpg 31.23 20191102083320
/home/pi/Desktop/BTP/Day2/Green/im84_083338.jpg 18.27 20191102083338
/home/pi/Desktop/BTP/Day2/Green/im85_083359.jpg 25.31 20191102083359
/home/pi/Desktop/BTP/Day2/Green/im86_083419.jpg 27.84 20191102083419
/home/pi/Desktop/BTP/Day2/Green/im87_083438.jpg 37.79 20191102083438
/home/pi/Desktop/BTP/Day2/Green/im88_083454.jpg 26.18 20191102083454
/home/pi/Desktop/BTP/Day2/Green/im89_083516.jpg 34.2 20191102083516
/home/pi/Desktop/BTP/Day2/Green/im90_083538.jpg 33.84 20191102083538
/home/pi/Desktop/BTP/Day2/Green/im91_083813.jpg 25.03 20191102083813
/home/pi/Desktop/BTP/Day2/Green/im92_083830.jpg 26.59 20191102083830
/home/pi/Desktop/BTP/Day2/Green/im93_083843.jpg 25.59 20191102083843
/home/pi/Desktop/BTP/Day2/Green/im94_083858.jpg 22.85 20191102083858
/home/pi/Desktop/BTP/Day2/Green/im95_083914.jpg 25.59 20191102083914
/home/pi/Desktop/BTP/Day2/Green/im96_083933.jpg 41.64 20191102083933
/home/pi/Desktop/BTP/Day2/Green/im97_083954.jpg 39.75 20191102083954
/home/pi/Desktop/BTP/Day2/Green/im98_084011.jpg 36.06 20191102084011
/home/pi/Desktop/BTP/Day2/Green/im99_084030.jpg 27.66 20191102084030
/home/pi/Desktop/BTP/Day2/Green/im100_084047.jpg 26.32 20191102084047
/home/pi/Desktop/BTP/Day2/Green/im101_084114.jpg 39.09 20191102084114
/home/pi/Desktop/BTP/Day2/Green/im102_084132.jpg 25.48 20191102084132
/home/pi/Desktop/BTP/Day2/Green/im103_084153.jpg 22.53 20191102084153
/home/pi/Desktop/BTP/Day2/Green/im104_084208.jpg 26.18 20191102084208
/home/pi/Desktop/BTP/Day2/Green/im105_084228.jpg 26.95 20191102084228
/home/pi/Desktop/BTP/Day2/Green/im106_084249.jpg 26.78 20191102084249
/home/pi/Desktop/BTP/Day2/Green/im107_084309.jpg 19.88 20191102084309
/home/pi/Desktop/BTP/Day2/Green/im108_084342.jpg 23.45 20191102084342
/home/pi/Desktop/BTP/Day2/Green/im109_084401.jpg 29.32 20191102084401
/home/pi/Desktop/BTP/Day2/Green/im110_084419.jpg 30.03 20191102084419
/home/pi/Desktop/BTP/Day2/Green/im111_084438.jpg 33.10 20191102084438
/home/pi/Desktop/BTP/Day2/Green/im112_084456.jpg 35.56 20191102084456
/home/pi/Desktop/BTP/Day2/Green/im113_084513.jpg 27.77 20191102084513
/home/pi/Desktop/BTP/Day2/Green/im114_084530.jpg 27.55 20191102084530
/home/pi/Desktop/BTP/Day2/Green/im115_084546.jpg 25.41 20191102084546
/home/pi/Desktop/BTP/Day2/Green/im116_084602.jpg 26.27 20191102084602
/home/pi/Desktop/BTP/Day2/Green/im117_084619.jpg 28.45 20191102084619
/home/pi/Desktop/BTP/Day2/Green/im118_084634.jpg 22.36 20191102084634
/home/pi/Desktop/BTP/Day2/Green/im119_084652.jpg 25.07 20191102084652
/home/pi/Desktop/BTP/Day2/Green/im120_084711.jpg 28.21 20191102084711
